module gitlab.com/dexter8242/taskwatch

go 1.21.0

require (
	github.com/charmbracelet/log v0.2.4
	github.com/spf13/viper v1.16.0
)

require (
	github.com/aymanbagabas/go-osc52/v2 v2.0.1 // indirect
	github.com/charmbracelet/lipgloss v0.8.0 // indirect
	github.com/fsnotify/fsnotify v1.6.0 // indirect
	github.com/go-logfmt/logfmt v0.6.0 // indirect
	github.com/hashicorp/hcl v1.0.0 // indirect
	github.com/lucasb-eyer/go-colorful v1.2.0 // indirect
	github.com/magiconair/properties v1.8.7 // indirect
	github.com/mattn/go-isatty v0.0.18 // indirect
	github.com/mattn/go-runewidth v0.0.14 // indirect
	github.com/mitchellh/mapstructure v1.5.0 // indirect
	github.com/muesli/reflow v0.3.0 // indirect
	github.com/muesli/termenv v0.15.2 // indirect
	github.com/pelletier/go-toml/v2 v2.0.8 // indirect
	github.com/rivo/uniseg v0.2.0 // indirect
	github.com/spf13/afero v1.9.5 // indirect
	github.com/spf13/cast v1.5.1 // indirect
	github.com/spf13/jwalterweatherman v1.1.0 // indirect
	github.com/spf13/pflag v1.0.5 // indirect
	github.com/subosito/gotenv v1.4.2 // indirect
	golang.org/x/sys v0.8.0 // indirect
	golang.org/x/text v0.9.0 // indirect
	gopkg.in/ini.v1 v1.67.0 // indirect
	gopkg.in/yaml.v3 v3.0.1 // indirect
)
